AES	0.018519285
AKT1	0.019338865
BCL2	0.514714243
BIRC5	0.0192704
BRCA1	0.020513065
BRD4	0.017771541
BYSL	0.01851719
CCNB1	0.016221757
CEBPB	0.023691146
CHUK	0.020660467
CTBP1	0.020150918
CTNNB1	0.020146099
DVL3	0.019990904
E2F4	0.019440169
ENO1	0.013295731
EP300	0.021151783
FOXM1	0.018873892
GCN1L1	0.020596455
GNL3	0.018065974
JUN	0.020614794
MAX_g1	0.023951687
MAX_m1	0.022821156
MYB	0.024420328
MYC	0.018110488
MYCBP-GJA+	0.019353668
MYCL1	0.027094261
NCOA3	0.020285214
NFKB1	0.019714452
RB1	0.020020476
RBL1	0.021614557
RELA	0.019429066
RPL11	0.014341063
SP1	0.021716192
STAT3	0.021141795
STAT5B	0.02248452
STK11	0.024692754
TBP	0.020997961
TCF7L2	0.022582041
TFDP1	0.017978678
TFDP2	0.018706288
TP53	0.018770528
TRIM28	0.018673526
YY1	0.019147128
ZBTB17	0.02101904
RNA spike assay	999
