AES	0.679746873
AKT1	0.720734597
BCL2	1.065934792
BIRC5	0.769687091
BRCA1	0.79984791
BRD4	0.639380904
BYSL	0.641847782
CCNB1	0.596046425
CEBPB	0.853882918
CHUK	0.78530913
CTBP1	0.732231418
CTNNB1	0.753981069
DVL3	0.745936243
E2F4	0.68630542
ENO1	0.482765614
EP300	0.789265274
FOXM1	0.691173272
GCN1L1	0.735988684
GNL3	0.655340436
JUN	0.802293129
MAX_g1	0.74165906
MAX_m1	0.674269085
MYB	0.984264484
MYC	0.701390081
MYCBP-GJA+	0.715710679
MYCL1	1.035446806
NCOA3	0.746079292
NFKB1	0.760976206
RB1	0.755911777
RBL1	0.792698574
RELA	0.68297186
RPL11	0.527917617
SP1	0.823834192
STAT3	0.783085358
STAT5B	0.825815149
STK11	0.912517034
TBP	0.776250609
TCF7L2	0.866926037
TFDP1	0.669120037
TFDP2	0.71412218
TP53	0.646858822
TRIM28	0.649488508
YY1	0.704973263
ZBTB17	0.789666702
RNA spike assay	25.92949088
