AES	0.730005186
AKT1	0.756612667
BCL2	1.197574661
BIRC5	0.766386348
BRCA1	0.83683582
BRD4	0.733978556
BYSL	0.778982376
CCNB1	0.648464133
CEBPB	0.978332378
CHUK	0.864078753
CTBP1	0.762538923
CTNNB1	0.749629813
DVL3	0.783935451
E2F4	0.736002614
ENO1	0.565527441
EP300	0.809511231
FOXM1	0.79479626
GCN1L1	0.768065912
GNL3	0.729257769
JUN	0.833756831
MAX_g1	0.758462812
MAX_m1	0.777572599
MYB	1.009126478
MYC	0.805318406
MYCBP-GJA+	0.846720312
MYCL1	1.138295218
NCOA3	0.809462128
NFKB1	0.81601047
RB1	0.810169958
RBL1	0.842802034
RELA	0.765874766
RPL11	0.577485064
SP1	0.903587104
STAT3	0.77691424
STAT5B	0.916949169
STK11	1.000400904
TBP	0.876021881
TCF7L2	0.859366342
TFDP1	0.676796147
TFDP2	0.788302963
TP53	0.74216961
TRIM28	0.734333116
YY1	0.748811797
ZBTB17	0.809301369
RNA spike assay	23.97611306
