AES	0.01898589
AKT1	0.020195042
BCL2	0.029441149
BIRC5	0.019401665
BRCA1	0.022126102
BRD4	0.019133076
BYSL	0.019892781
CCNB1	0.022326927
CEBPB	0.025296845
CHUK	0.021545943
CTBP1	0.019842894
CTNNB1	0.019638056
DVL3	0.020294361
E2F4	0.019601072
ENO1	0.014276203
EP300	0.02128049
FOXM1	0.020947673
GCN1L1	0.02014146
GNL3	0.018328614
JUN	0.020828122
MAX_g1	0.020195622
MAX_m1	0.019950572
MYB	0.026369437
MYC	0.019460815
MYCBP-GJA+	0.020750511
MYCL1	0.028178549
NCOA3	0.021536476
NFKB1	0.020320921
RB1	0.020729183
RBL1	0.022790489
RELA	0.019248041
RPL11	0.014635213
SP1	0.022132219
STAT3	0.021299095
STAT5B	0.024083853
STK11	0.026139994
TBP	0.022807566
TCF7L2	0.022243214
TFDP1	0.017310535
TFDP2	0.019956375
TP53	0.018727135
TRIM28	0.019409696
YY1	0.019074135
ZBTB17	0.020038314
RNA spike assay	999
