AES	0.65903498
AKT1	0.884855831
BCL2	37.50384198
BIRC5	0.673358643
BRCA1	0.739253469
BRD4	0.645092159
BYSL	0.658119148
CCNB1	0.577546982
CEBPB	0.925395368
CHUK	0.768551463
CTBP1	0.745773813
CTNNB1	0.72645414
DVL3	0.743944393
E2F4	0.677282816
ENO1	0.444880569
EP300	0.780924072
FOXM1	0.65593423
GCN1L1	0.736648099
GNL3	0.654555753
JUN	0.771489514
MAX_g1	0.733110517
MAX_m1	0.66657417
MYB	0.928634106
MYC	0.692670026
MYCBP-GJA+	0.643303583
MYCL1	1.064743388
NCOA3	0.729985467
NFKB1	0.727619945
RB1	0.713366231
RBL1	0.763893387
RELA	0.695596909
RPL11	0.502935224
SP1	0.77900729
STAT3	0.744704564
STAT5B	0.816917475
STK11	0.902813874
TBP	0.776752008
TCF7L2	0.801463448
TFDP1	0.666532026
TFDP2	0.693596915
TP53	0.679695503
TRIM28	0.654316933
YY1	0.698471032
ZBTB17	0.769444839
RNA spike assay	26.63727094
