AES	0.670804142
AKT1	0.697549217
BCL2	1.072886815
BIRC5	0.695187292
BRCA1	0.755678112
BRD4	0.668728409
BYSL	0.71063317
CCNB1	0.581098877
CEBPB	0.903388076
CHUK	0.769249998
CTBP1	0.686918162
CTNNB1	0.702087877
DVL3	0.718493903
E2F4	0.663050289
ENO1	0.50034305
EP300	0.843470314
FOXM1	0.725476047
GCN1L1	0.713521592
GNL3	0.666217939
JUN	0.757644475
MAX_g1	0.709530257
MAX_m1	0.707006799
MYB	0.89505802
MYC	0.753332948
MYCBP-GJA+	0.745620548
MYCL1	19.64511193
NCOA3	0.743781894
NFKB1	0.719076001
RB1	0.737603997
RBL1	0.784339919
RELA	0.670420284
RPL11	0.537940903
SP1	0.766252863
STAT3	0.73305568
STAT5B	0.839340377
STK11	0.914518618
TBP	0.816963827
TCF7L2	0.78793575
TFDP1	0.614882284
TFDP2	0.721632299
TP53	0.688317327
TRIM28	0.657847384
YY1	0.687933136
ZBTB17	0.733517524
RNA spike assay	26.13325538
