AES	0.710916177
AKT1	0.751364414
BCL2	1.075155299
BIRC5	0.802370533
BRCA1	0.82563953
BRD4	0.885014985
BYSL	0.709377912
CCNB1	0.675542289
CEBPB	0.904631093
CHUK	0.842236381
CTBP1	0.750763434
CTNNB1	0.76548908
DVL3	0.767371289
E2F4	0.748634233
ENO1	0.500394227
EP300	0.815583071
FOXM1	0.718377082
GCN1L1	0.780750182
GNL3	0.713299148
JUN	0.789274584
MAX_g1	0.787926202
MAX_m1	0.706594274
MYB	0.993940021
MYC	0.764773301
MYCBP-GJA+	0.765426739
MYCL1	1.064666657
NCOA3	0.790225985
NFKB1	0.839089707
RB1	0.801104346
RBL1	0.844603374
RELA	0.716968992
RPL11	0.574423471
SP1	0.843126351
STAT3	0.787649724
STAT5B	0.872959837
STK11	0.959405873
TBP	0.830009141
TCF7L2	0.889860417
TFDP1	0.750844553
TFDP2	0.815440222
TP53	0.789660412
TRIM28	0.714275705
YY1	0.758522071
ZBTB17	0.830651369
RNA spike assay	24.70097601
