AES	0.654852574
AKT1	0.697176356
BCL2	1.036914544
BIRC5	0.692860532
BRCA1	0.72612536
BRD4	0.638516963
BYSL	0.647955261
CCNB1	0.581167015
CEBPB	0.840470274
CHUK	0.758736404
CTBP1	0.717374919
CTNNB1	0.724074942
DVL3	0.727596614
E2F4	0.690191672
ENO1	0.471667027
EP300	0.758596143
FOXM1	0.661335349
GCN1L1	0.727254006
GNL3	0.660344569
JUN	0.752226172
MAX_g1	0.721918377
MAX_m1	0.659532353
MYB	0.852487028
MYC	0.678158169
MYCBP-GJA+	0.691325335
MYCL1	36.49885907
NCOA3	0.749418559
NFKB1	0.725264271
RB1	0.731361886
RBL1	0.750400831
RELA	0.682677605
RPL11	0.510971944
SP1	0.768342675
STAT3	0.755281279
STAT5B	0.802792886
STK11	0.862025905
TBP	0.76315402
TCF7L2	0.794970834
TFDP1	0.638594951
TFDP2	0.688649544
TP53	0.676814124
TRIM28	0.648437692
YY1	0.689208901
ZBTB17	0.762425365
RNA spike assay	27.37071858
