AES	0.73983878
AKT1	0.769408863
BCL2	20.39412622
BIRC5	0.774457876
BRCA1	0.849124256
BRD4	0.73793852
BYSL	0.770271197
CCNB1	0.657795623
CEBPB	0.97470801
CHUK	0.831507457
CTBP1	0.772170055
CTNNB1	0.753655512
DVL3	0.781621159
E2F4	0.749210603
ENO1	0.542153098
EP300	0.808674604
FOXM1	0.79984952
GCN1L1	0.769972771
GNL3	0.711173235
JUN	0.798529241
MAX_g1	0.754643046
MAX_m1	0.75438766
MYB	39.62269821
MYC	0.772958966
MYCBP-GJA+	0.792784237
MYCL1	20.37205902
NCOA3	0.819002933
NFKB1	0.790374159
RB1	0.804315094
RBL1	0.852998684
RELA	0.741192583
RPL11	0.577834391
SP1	0.832764498
STAT3	0.79109857
STAT5B	0.91470879
STK11	0.994204403
TBP	0.877882554
TCF7L2	0.83429794
TFDP1	0.676868468
TFDP2	0.797027608
TP53	0.735282421
TRIM28	0.735229593
YY1	0.735388942
ZBTB17	0.799494514
RNA spike assay	25.21282107
