AES	0.71123374
AKT1	0.753174203
BCL2	1.061582608
BIRC5	0.757760538
BRCA1	0.764423923
BRD4	0.679604574
BYSL	0.687908662
CCNB1	0.628333921
CEBPB	0.88135108
CHUK	0.807505782
CTBP1	0.753330704
CTNNB1	0.756099055
DVL3	0.755394397
E2F4	0.726352399
ENO1	0.487310198
EP300	0.8056008
FOXM1	0.676285921
GCN1L1	0.757276652
GNL3	0.697803596
JUN	0.78200303
MAX_g1	0.753446303
MAX_m1	0.702643762
MYB	0.916407203
MYC	0.724525158
MYCBP-GJA+	0.741752566
MYCL1	1.088700559
NCOA3	0.763963483
NFKB1	0.764966544
RB1	0.779079043
RBL1	0.894507293
RELA	0.725993099
RPL11	0.553421757
SP1	0.807166079
STAT3	0.783240047
STAT5B	0.848213118
STK11	0.909637066
TBP	0.804929192
TCF7L2	0.822927623
TFDP1	0.67340672
TFDP2	0.754962141
TP53	0.720946761
TRIM28	0.679846672
YY1	0.722742647
ZBTB17	0.797747926
RNA spike assay	25.91429019
