AES	0.035570682
AKT1	0.03768267
BCL2	0.052510748
BIRC5	0.037249288
BRCA1	0.039089572
BRD4	0.033847386
BYSL	0.035062578
CCNB1	0.030689175
CEBPB	0.046092377
CHUK	0.040490171
CTBP1	0.038630544
CTNNB1	0.038926796
DVL3	0.038713328
E2F4	0.037582652
ENO1	0.025123872
EP300	0.039725674
FOXM1	0.034993035
GCN1L1	0.038589004
GNL3	0.034846561
JUN	0.039975198
MAX_g1	0.039438334
MAX_m1	0.036214031
MYB	0.047921027
MYC	0.036658329
MYCBP-GJA+	0.037472993
MYCL1	1.001896072
NCOA3	0.045006924
NFKB1	0.038674812
RB1	0.038292717
RBL1	0.039891198
RELA	0.036624839
RPL11	0.028042937
SP1	0.041299575
STAT3	0.040006027
STAT5B	0.043164502
STK11	0.046647936
TBP	0.040861596
TCF7L2	0.041624468
TFDP1	0.034274963
TFDP2	0.037166176
TP53	0.036997758
TRIM28	0.034509238
YY1	0.036004406
ZBTB17	0.04132273
RNA spike assay	512.6812755
