AES	0.736213898
AKT1	0.770496079
BCL2	20.54499518
BIRC5	0.749950269
BRCA1	0.836474866
BRD4	0.732534657
BYSL	0.774126644
CCNB1	0.630943067
CEBPB	0.972727928
CHUK	0.838789186
CTBP1	0.76676319
CTNNB1	0.782827972
DVL3	0.796517344
E2F4	0.722702284
ENO1	0.53906526
EP300	0.823240983
FOXM1	0.777854987
GCN1L1	0.782275542
GNL3	0.719161726
JUN	0.823221825
MAX_g1	0.779085428
MAX_m1	0.770922074
MYB	0.992241068
MYC	0.790188721
MYCBP-GJA+	0.8078545
MYCL1	39.89305127
NCOA3	0.84354213
NFKB1	0.783679149
RB1	0.810965262
RBL1	0.867949456
RELA	0.744007768
RPL11	0.575857256
SP1	0.851518482
STAT3	0.825374587
STAT5B	0.925707218
STK11	0.982225193
TBP	0.879979301
TCF7L2	0.851667291
TFDP1	0.667850742
TFDP2	0.781803279
TP53	0.727925275
TRIM28	0.732660374
YY1	0.746470849
ZBTB17	0.792001117
RNA spike assay	25.04195514
